<?xml version="1.0" encoding="UTF-8"?>
<session version="1.0">
<refactoring accessors="true" comment="Delete element from project &apos;HotelRestlet&apos;&#x0A;- Original project: &apos;HotelRestlet&apos;&#x0A;- Original element: &apos;com.BDHotel.bdd.Test_BD.java&apos;" description="Delete element" element1="/src&lt;com.BDHotel.bdd{Test_BD.java" elements="1" flags="589830" id="org.eclipse.jdt.ui.delete" resources="0" stamp="1606388925511" subPackages="false" version="1.0"/>
</session>